# Fdb version 3
["latex"] 1391693978 "dissertation.tex" "dissertation.dvi" "dissertation" 1391693986
  "C:/Program Files/MiKTeX 2.9/fonts/tfm/adobe/helvetic/phvb7t.tfm" 1136772254 2240 eb56c13537f4d8a0bd3fafc25572b1bd ""
  "C:/Program Files/MiKTeX 2.9/fonts/tfm/adobe/helvetic/phvr7t.tfm" 1136772254 2520 53e01eef820ca829e42c1333c3fd02b9 ""
  "C:/Program Files/MiKTeX 2.9/fonts/tfm/adobe/helvetic/phvro7t.tfm" 1136772254 2772 ab6561c8ff5ee69ff6d5961b9356db5a ""
  "C:/Program Files/MiKTeX 2.9/fonts/tfm/adobe/palatino/pplr9d.tfm" 1136772254 6952 fcebd9505ff25166f6bdc98f5d26741b ""
  "C:/Program Files/MiKTeX 2.9/fonts/tfm/adobe/times/ptmb7t.tfm" 1136772254 2172 fd0c924230362ff848a33632ed45dc23 ""
  "C:/Program Files/MiKTeX 2.9/fonts/tfm/adobe/times/ptmr7t.tfm" 1136772254 2124 2601a75482e9426d33db523edf23570a ""
  "C:/Program Files/MiKTeX 2.9/fonts/tfm/adobe/times/ptmri7t.tfm" 1136772254 2288 f478fc8fed18759effb59f3dad7f3084 ""
  "C:/Program Files/MiKTeX 2.9/fonts/tfm/public/cm/cmr10.tfm" 1136765053 1296 45809c5a464d5f32c8f98ba97c1bb47f ""
  "C:/Program Files/MiKTeX 2.9/tex/generic/ifxetex/ifxetex.sty" 1284257189 1458 43ab4710dc82f3edeabecd0d099626b2 ""
  "C:/Program Files/MiKTeX 2.9/tex/generic/oberdiek/gettitlestring.sty" 1335450749 8237 52810bdb4db2270e717422560a104aea ""
  "C:/Program Files/MiKTeX 2.9/tex/generic/oberdiek/hobsub-generic.sty" 1335450885 189108 b6332bdfbe5a7928869d963b5feba6e4 ""
  "C:/Program Files/MiKTeX 2.9/tex/generic/oberdiek/hobsub-hyperref.sty" 1335450886 70749 430f92b854dd95696a0bc06728e2d28f ""
  "C:/Program Files/MiKTeX 2.9/tex/generic/oberdiek/ifpdf.sty" 1335450763 7140 ece2cc23d9f20e1f53975ac167f42d3e ""
  "C:/Program Files/MiKTeX 2.9/tex/generic/pgf/basiclayer/pgfcore.code.tex" 1288036821 1006 b103be0bfc8c1682ff1fa9760697a329 ""
  "C:/Program Files/MiKTeX 2.9/tex/generic/pgf/basiclayer/pgfcorearrows.code.tex" 1288036821 17851 c112f6fe3b1889f91d54568be38c934d ""
  "C:/Program Files/MiKTeX 2.9/tex/generic/pgf/basiclayer/pgfcoreexternal.code.tex" 1288036821 17756 ee5bc7b20f746062c721d3fb3561530d ""
  "C:/Program Files/MiKTeX 2.9/tex/generic/pgf/basiclayer/pgfcoregraphicstate.code.tex" 1288036821 5784 795b041ac60be7a46c83610345e459cb ""
  "C:/Program Files/MiKTeX 2.9/tex/generic/pgf/basiclayer/pgfcoreimage.code.tex" 1288036821 7101 668c6a35cbea2ae302bbff4c62370bbd ""
  "C:/Program Files/MiKTeX 2.9/tex/generic/pgf/basiclayer/pgfcorelayers.code.tex" 1288036821 2995 7ef0769105aad1182125ada52b0cbaa6 ""
  "C:/Program Files/MiKTeX 2.9/tex/generic/pgf/basiclayer/pgfcoreobjects.code.tex" 1288036821 2631 7eefa6cdbefd8d4e2bad7262cf1094cd ""
  "C:/Program Files/MiKTeX 2.9/tex/generic/pgf/basiclayer/pgfcorepathconstruct.code.tex" 1288036821 43868 70ba8731b9094652f05c653fd1011379 ""
  "C:/Program Files/MiKTeX 2.9/tex/generic/pgf/basiclayer/pgfcorepathprocessing.code.tex" 1288036821 14189 bb3d2e0069dd43b25211385d7cac9d2c ""
  "C:/Program Files/MiKTeX 2.9/tex/generic/pgf/basiclayer/pgfcorepathusage.code.tex" 1288036821 7725 917b5feaf8acae1fd979a8564eaf989c ""
  "C:/Program Files/MiKTeX 2.9/tex/generic/pgf/basiclayer/pgfcorepatterns.code.tex" 1288036821 9518 b56e94efcd163a86f7e645fed6165055 ""
  "C:/Program Files/MiKTeX 2.9/tex/generic/pgf/basiclayer/pgfcorepoints.code.tex" 1288036821 32491 d736244a6b667da89812f9b71e53016f ""
  "C:/Program Files/MiKTeX 2.9/tex/generic/pgf/basiclayer/pgfcorequick.code.tex" 1288036821 3052 e5672c657232fd63b0a9853b0746297c ""
  "C:/Program Files/MiKTeX 2.9/tex/generic/pgf/basiclayer/pgfcorescopes.code.tex" 1288036821 15994 10d20fb800ca222911f363d456007171 ""
  "C:/Program Files/MiKTeX 2.9/tex/generic/pgf/basiclayer/pgfcoreshade.code.tex" 1288036821 21374 d2661129e65955d45fb741c95bb78d7a ""
  "C:/Program Files/MiKTeX 2.9/tex/generic/pgf/basiclayer/pgfcoretransformations.code.tex" 1288036821 16741 1d0bcd33afcd45b27dceb8fd40f9b4e5 ""
  "C:/Program Files/MiKTeX 2.9/tex/generic/pgf/basiclayer/pgfcoretransparency.code.tex" 1288036821 6577 2d95347b651f18f98fead9415f300f4a ""
  "C:/Program Files/MiKTeX 2.9/tex/generic/pgf/frontendlayer/tikz/libraries/tikzlibrarypositioning.code.tex" 1288036821 4034 0a8cd33cf30d262ec971380666acb2d0 ""
  "C:/Program Files/MiKTeX 2.9/tex/generic/pgf/frontendlayer/tikz/libraries/tikzlibrarytopaths.code.tex" 1288036821 11599 d694704a88e2f9007c996d3a6a4d629c ""
  "C:/Program Files/MiKTeX 2.9/tex/generic/pgf/frontendlayer/tikz/tikz.code.tex" 1288036821 141845 db379d46f557a21d1a89b87a59bd9c88 ""
  "C:/Program Files/MiKTeX 2.9/tex/generic/pgf/libraries/pgflibraryplothandlers.code.tex" 1288036821 30458 cb99d585a0cb84cc8870d0c59953a396 ""
  "C:/Program Files/MiKTeX 2.9/tex/generic/pgf/math/pgfmath.code.tex" 1288036821 378 6ef5723aad20c1a3d29639e179a42dd6 ""
  "C:/Program Files/MiKTeX 2.9/tex/generic/pgf/math/pgfmathcalc.code.tex" 1288036821 13312 f9d89166b99ea7e00e77858fe0194db1 ""
  "C:/Program Files/MiKTeX 2.9/tex/generic/pgf/math/pgfmathfloat.code.tex" 1288036821 83664 208cb30de41494880aa77fffb3a1ccda ""
  "C:/Program Files/MiKTeX 2.9/tex/generic/pgf/math/pgfmathfunctions.base.code.tex" 1288036821 8606 58f348f09f02ad9c20b10c1005bd9663 ""
  "C:/Program Files/MiKTeX 2.9/tex/generic/pgf/math/pgfmathfunctions.basic.code.tex" 1288036821 19855 ed1993a13913c58cb372b1d66f20ea17 ""
  "C:/Program Files/MiKTeX 2.9/tex/generic/pgf/math/pgfmathfunctions.code.tex" 1288036821 7724 738eefe8218f0e08dd2c317adbca7db5 ""
  "C:/Program Files/MiKTeX 2.9/tex/generic/pgf/math/pgfmathfunctions.comparison.code.tex" 1288036821 3534 c7f28fbac13616513e513efe93b8569b ""
  "C:/Program Files/MiKTeX 2.9/tex/generic/pgf/math/pgfmathfunctions.misc.code.tex" 1288036821 8574 010fc7ab92ca16c2da0f097ae7066b0d ""
  "C:/Program Files/MiKTeX 2.9/tex/generic/pgf/math/pgfmathfunctions.random.code.tex" 1288036821 6964 d4b5e82dabddda1c728063bb9c8a22ba ""
  "C:/Program Files/MiKTeX 2.9/tex/generic/pgf/math/pgfmathfunctions.round.code.tex" 1288036821 2688 139c6abc86761a6190c2f4bef5d752be ""
  "C:/Program Files/MiKTeX 2.9/tex/generic/pgf/math/pgfmathfunctions.trigonometric.code.tex" 1288036821 86620 8a979a1502115110f3469c7579238489 ""
  "C:/Program Files/MiKTeX 2.9/tex/generic/pgf/math/pgfmathparser.code.tex" 1288036821 27428 c613a3d1b703431360c8ef5579d00d85 ""
  "C:/Program Files/MiKTeX 2.9/tex/generic/pgf/math/pgfmathutil.code.tex" 1288036821 7107 704b307dcd1ea898b650a4d17fe53fbe ""
  "C:/Program Files/MiKTeX 2.9/tex/generic/pgf/modules/pgfmodulematrix.code.tex" 1288036821 20561 36e4cfc08771b8946e4669f1caa099d3 ""
  "C:/Program Files/MiKTeX 2.9/tex/generic/pgf/modules/pgfmoduleplot.code.tex" 1288036821 10369 a8edc63c9a6be08baf6e4c402df10590 ""
  "C:/Program Files/MiKTeX 2.9/tex/generic/pgf/modules/pgfmoduleshapes.code.tex" 1288036821 38030 dfa64639c84226b6d8ea0a34ae778755 ""
  "C:/Program Files/MiKTeX 2.9/tex/generic/pgf/systemlayer/pgf.cfg" 1288036821 978 15af626ebd3d4d790aac19170dac04f2 ""
  "C:/Program Files/MiKTeX 2.9/tex/generic/pgf/systemlayer/pgfsys-common-postscript.def" 1288036821 15085 5d062d9d9524d2bf173b60608bf58226 ""
  "C:/Program Files/MiKTeX 2.9/tex/generic/pgf/systemlayer/pgfsys-dvips.def" 1288036821 3932 61d250f51f21a40c64a481cadbbce3eb ""
  "C:/Program Files/MiKTeX 2.9/tex/generic/pgf/systemlayer/pgfsys.code.tex" 1288036821 32236 3923b93ea40b486a68f35dd7558f335c ""
  "C:/Program Files/MiKTeX 2.9/tex/generic/pgf/systemlayer/pgfsysprotocol.code.tex" 1288036821 1983 b5994ebbcee17f1ba3d29bb1bd696fcf ""
  "C:/Program Files/MiKTeX 2.9/tex/generic/pgf/systemlayer/pgfsyssoftpath.code.tex" 1288036821 7677 2eb6cc84c604878c08c9d943bbbc6e32 ""
  "C:/Program Files/MiKTeX 2.9/tex/generic/pgf/utilities/pgffor.code.tex" 1288036821 21943 6710bea9dc92856d36a3dd219c3fdb8b ""
  "C:/Program Files/MiKTeX 2.9/tex/generic/pgf/utilities/pgfkeys.code.tex" 1288036821 32925 ac47add413403603a8d3c47e035bd76c ""
  "C:/Program Files/MiKTeX 2.9/tex/generic/pgf/utilities/pgfkeysfiltered.code.tex" 1288036821 33372 15f61ab79cad6ae1941b5caee584016a ""
  "C:/Program Files/MiKTeX 2.9/tex/generic/pgf/utilities/pgfrcs.code.tex" 1288036821 2320 086533930e1dade214bdcd74a189c5a5 ""
  "C:/Program Files/MiKTeX 2.9/tex/generic/pgf/utilities/pgfutil-common.tex" 1288036821 13382 a0507b5422f675ba8588f019a2f8b68e ""
  "C:/Program Files/MiKTeX 2.9/tex/generic/pgf/utilities/pgfutil-latex.def" 1288036821 2771 d32e3f533abf44397dd690e41e934cdc ""
  "C:/Program Files/MiKTeX 2.9/tex/generic/xkeyval/xkeyval.tex" 1350199540 25158 17ce5e17c509c8ed5fd67545bd467826 ""
  "C:/Program Files/MiKTeX 2.9/tex/generic/xstring/xstring.tex" 1381653102 54373 fd4487ae3e45d4074bc89aea1d2b6807 ""
  "C:/Program Files/MiKTeX 2.9/tex/latex/00miktex/color.cfg" 1169166149 802 7b8c8d72c24d795ed7720e4dfd29bff3 ""
  "C:/Program Files/MiKTeX 2.9/tex/latex/00miktex/graphics.cfg" 1169166149 1599 cc574e5c201b0aea0b14dad7e51fd367 ""
  "C:/Program Files/MiKTeX 2.9/tex/latex/00miktex/hyperref.cfg" 1136242423 235 6031e5765137be07eed51a510b2b8fb7 ""
  "C:/Program Files/MiKTeX 2.9/tex/latex/a4wide/a4wide.sty" 1294164521 1635 717cb53b4323c7ff0cf7f675b11dfe05 ""
  "C:/Program Files/MiKTeX 2.9/tex/latex/acronym/acronym.sty" 1351517214 16435 b69592db356d8a3ffd5c1a47b032b40d ""
  "C:/Program Files/MiKTeX 2.9/tex/latex/amscls/amsthm.sty" 1091821449 13294 f63af559496acbb4ffecc2de353745eb ""
  "C:/Program Files/MiKTeX 2.9/tex/latex/amsmath/amsbsy.sty" 1358196883 2412 2d98314dc5be38f455f8890deeb2d091 ""
  "C:/Program Files/MiKTeX 2.9/tex/latex/amsmath/amsgen.sty" 1358196885 4357 ad30ad08920902fc9b38caf35a3b0496 ""
  "C:/Program Files/MiKTeX 2.9/tex/latex/amsmath/amsmath.sty" 1358196885 79178 b2e326c351e876df0e5e23df2e02441b ""
  "C:/Program Files/MiKTeX 2.9/tex/latex/amsmath/amsopn.sty" 1358196888 4082 502152465aedb8f6a3c4b0b7c0fa8ae5 ""
  "C:/Program Files/MiKTeX 2.9/tex/latex/amsmath/amstext.sty" 1358196889 2637 846ebe982d3549c7ede7ce135456f54a ""
  "C:/Program Files/MiKTeX 2.9/tex/latex/base/ifthen.sty" 1309389940 5022 2ec7815b07dc68e65542e23a180bc839 ""
  "C:/Program Files/MiKTeX 2.9/tex/latex/base/inputenc.sty" 1309389936 4388 1cb2ca8d423695bd22ea8d126c276f33 ""
  "C:/Program Files/MiKTeX 2.9/tex/latex/base/makeidx.sty" 1309389940 1803 73774dc5d3e5e39067964331f0b99649 ""
  "C:/Program Files/MiKTeX 2.9/tex/latex/bigfoot/suffix.sty" 1187110767 3188 2dff3f11a61182b0df43010ba0d47eaa ""
  "C:/Program Files/MiKTeX 2.9/tex/latex/booktabs/booktabs.sty" 1114283698 6557 989ecfb545a13610facc71ae7e40ced1 ""
  "C:/Program Files/MiKTeX 2.9/tex/latex/caption/caption.sty" 1368350327 65148 c61accbd2b9a5316d9be0887ec48d722 ""
  "C:/Program Files/MiKTeX 2.9/tex/latex/caption/caption3.sty" 1368350327 62748 b02c0dc118f5f35146d37cec569e83b1 ""
  "C:/Program Files/MiKTeX 2.9/tex/latex/caption/ltcaption.sty" 1368350327 6681 79588c96d214097730f021722fa0d151 ""
  "C:/Program Files/MiKTeX 2.9/tex/latex/carlisle/remreset.sty" 923781600 1096 6a75275ca00e32428c6f059d2f618ea7 ""
  "C:/Program Files/MiKTeX 2.9/tex/latex/classicthesis/classicthesis.sty" 1344666704 31764 ec70328fe045d3ec4bcd458d94509f8f ""
  "C:/Program Files/MiKTeX 2.9/tex/latex/cleveref/cleveref.sty" 1389017557 348138 1f0025fb7b81e674af7c859d9d323705 ""
  "C:/Program Files/MiKTeX 2.9/tex/latex/comment/comment.sty" 940079820 9200 15447229d598a2fc39ae201a7969afc6 ""
  "C:/Program Files/MiKTeX 2.9/tex/latex/datatool/datatool-base.sty" 1378453962 74104 9e5097ecbb7d9794c204a22a03d0f274 ""
  "C:/Program Files/MiKTeX 2.9/tex/latex/datatool/datatool-fp.sty" 1378453962 3944 03292d5d970a59ad1f50abe764874265 ""
  "C:/Program Files/MiKTeX 2.9/tex/latex/datatool/datatool.sty" 1378453962 101336 d66936b222c54d089ec1bcbdb4a5b46e ""
  "C:/Program Files/MiKTeX 2.9/tex/latex/dtk/dtklogos.sty" 1276926815 10418 7bc7ec723e0a64016634e6b13d62020e ""
  "C:/Program Files/MiKTeX 2.9/tex/latex/enumitem/enumitem.sty" 1317219968 42666 6fa770e3485520a6a5f2ea7d259c8f8d ""
  "C:/Program Files/MiKTeX 2.9/tex/latex/etoolbox/etoolbox.sty" 1294078450 41188 02561c41bb08b479074b6e76f0b7d639 ""
  "C:/Program Files/MiKTeX 2.9/tex/latex/fp/defpattern.sty" 1046217600 1112 6a8d78d0e6b2d89334f92fd122c1da99 ""
  "C:/Program Files/MiKTeX 2.9/tex/latex/fp/fp-addons.sty" 1046217600 1341 fe903646b72b3e877914d78f2db9ddda ""
  "C:/Program Files/MiKTeX 2.9/tex/latex/fp/fp-basic.sty" 1046217600 30816 b6366b50463dfb367cf560419d0cea8d ""
  "C:/Program Files/MiKTeX 2.9/tex/latex/fp/fp-eqn.sty" 1046217600 11718 afed7aa5dbc4bf246950282b95e522c2 ""
  "C:/Program Files/MiKTeX 2.9/tex/latex/fp/fp-eval.sty" 1046217600 6375 eeeffd00d1235e73c380c6dc9f30ac43 ""
  "C:/Program Files/MiKTeX 2.9/tex/latex/fp/fp-exp.sty" 1046217600 17464 7ba2d4a3882e46a0429106267976ad21 ""
  "C:/Program Files/MiKTeX 2.9/tex/latex/fp/fp-pas.sty" 1046217600 3124 6fd5da0dc83ba1d19525f1fb08dca7df ""
  "C:/Program Files/MiKTeX 2.9/tex/latex/fp/fp-random.sty" 1046217600 3822 6e54ac63212901d59e6ea2a32b0a7689 ""
  "C:/Program Files/MiKTeX 2.9/tex/latex/fp/fp-snap.sty" 1046217600 6761 c1e5d3c6aed32ba782f756d79578d87b ""
  "C:/Program Files/MiKTeX 2.9/tex/latex/fp/fp-trigo.sty" 1046217600 30088 342a2de338e342de95d2551557e50f06 ""
  "C:/Program Files/MiKTeX 2.9/tex/latex/fp/fp-upn.sty" 1046217600 7391 78a835a719e27a484e63f1f98ba4df11 ""
  "C:/Program Files/MiKTeX 2.9/tex/latex/fp/fp.sty" 1046217600 1015 d84df22b060ce125f89a32c403dcab31 ""
  "C:/Program Files/MiKTeX 2.9/tex/latex/glossaries/base/glossaries-compatible-307.sty" 1386256785 18298 68386dd6eed826ae44ba7231d7c20c7a ""
  "C:/Program Files/MiKTeX 2.9/tex/latex/glossaries/base/glossaries.sty" 1386256785 197655 c71a2c0b340a7cb750ff54c2aca339cf ""
  "C:/Program Files/MiKTeX 2.9/tex/latex/glossaries/base/mfirstuc.sty" 1386256785 5348 6506d6610c4d31b579e413e196fade1d ""
  "C:/Program Files/MiKTeX 2.9/tex/latex/glossaries/styles/glossary-hypernav.sty" 1386256785 5140 29bd14f48ffa7710a65021883aa56d5c ""
  "C:/Program Files/MiKTeX 2.9/tex/latex/glossaries/styles/glossary-list.sty" 1386256785 5869 8a2aef85a1860460476f0b4d2059e0a2 ""
  "C:/Program Files/MiKTeX 2.9/tex/latex/glossaries/styles/glossary-long.sty" 1386256785 8493 cbd74c1c5cc6b105472fdaf9532c78fb ""
  "C:/Program Files/MiKTeX 2.9/tex/latex/glossaries/styles/glossary-super.sty" 1386256785 9520 e8518a2f6ee93bb1339379c57fff49cf ""
  "C:/Program Files/MiKTeX 2.9/tex/latex/glossaries/styles/glossary-tree.sty" 1386256785 10419 43a4fa2c3c24c3e58a0b40fa497124f4 ""
  "C:/Program Files/MiKTeX 2.9/tex/latex/graphics/dvips.def" 1253893524 4987 e75a6e083c3e5580593a6e65268b14e5 ""
  "C:/Program Files/MiKTeX 2.9/tex/latex/graphics/dvipsnam.def" 1253893524 4874 4251d89f9985d46c9ec7bed85727beb1 ""
  "C:/Program Files/MiKTeX 2.9/tex/latex/graphics/graphics.sty" 1253893524 14183 42a8fc761b806986eef292369afc2988 ""
  "C:/Program Files/MiKTeX 2.9/tex/latex/graphics/graphicx.sty" 1253893524 7882 3bd78469d444e8d494e27cfd7ca92719 ""
  "C:/Program Files/MiKTeX 2.9/tex/latex/graphics/keyval.sty" 1253893524 2266 7054435e4584a41cf53b0a7ca624d0cb ""
  "C:/Program Files/MiKTeX 2.9/tex/latex/graphics/trig.sty" 1253893524 3153 c50e6bd54d2dd3933fc52bcf369bec4a ""
  "C:/Program Files/MiKTeX 2.9/tex/latex/hyperref/hdvips.def" 1352254148 3471 43fa5241d35e8bdbf02746c6d8e25fc2 ""
  "C:/Program Files/MiKTeX 2.9/tex/latex/hyperref/hyperref.sty" 1352254148 231792 5fc9dc7dd667e773a766ecc63bba7f4b ""
  "C:/Program Files/MiKTeX 2.9/tex/latex/hyperref/nameref.sty" 1352254148 12847 25b617d63258c4f72870c883493a3cf8 ""
  "C:/Program Files/MiKTeX 2.9/tex/latex/hyperref/pd1enc.def" 1352254149 14005 155ac8fad2e5dd7c2cdd130fabd96633 ""
  "C:/Program Files/MiKTeX 2.9/tex/latex/hyperref/pdfmark.def" 1352254148 49315 059e7f302e066f22f383833cd87167cb ""
  "C:/Program Files/MiKTeX 2.9/tex/latex/hyperref/puenc.def" 1352254149 122263 ec12fdd2044f1507e5ae92ee7a5bbfae ""
  "C:/Program Files/MiKTeX 2.9/tex/latex/koma-script/scrbase.sty" 1387440188 55703 8d34659e3bbcb46e729fb4d093891dde ""
  "C:/Program Files/MiKTeX 2.9/tex/latex/koma-script/scrbook.cls" 1387440188 144039 49617e5c0bb85ff3ff393e766cab4598 ""
  "C:/Program Files/MiKTeX 2.9/tex/latex/koma-script/scrkbase.sty" 1387440188 12379 3e204271e403e344e17ea6f271e1cb9e ""
  "C:/Program Files/MiKTeX 2.9/tex/latex/koma-script/scrlfile.sty" 1387440188 15847 761a87489e4c6c4c729b168a58a59b20 ""
  "C:/Program Files/MiKTeX 2.9/tex/latex/koma-script/scrpage2.sty" 1387440188 39803 b612412c71feb78939b0581c57aaef08 ""
  "C:/Program Files/MiKTeX 2.9/tex/latex/koma-script/scrsize11pt.clo" 1387440188 6266 ec5a927b5ca7467339876cecc7be43ce ""
  "C:/Program Files/MiKTeX 2.9/tex/latex/koma-script/scrtime.sty" 1387440188 3948 7bc8c0973b6b0bb8eec6c8bb722194b1 ""
  "C:/Program Files/MiKTeX 2.9/tex/latex/koma-script/tocbasic.sty" 1387440188 24027 7b4ce5935b179707cac172da66829e7a ""
  "C:/Program Files/MiKTeX 2.9/tex/latex/koma-script/typearea.sty" 1387440188 41596 d65c9f746399b09ef87b07ec8a6b458e ""
  "C:/Program Files/MiKTeX 2.9/tex/latex/lipsum/lipsum.sty" 1303226836 103603 ad70c797c40c1d5d6739cbbec86b4a6f ""
  "C:/Program Files/MiKTeX 2.9/tex/latex/listings/listings.cfg" 1378718129 1877 ad5c0bfd4bb17a6203cea3ae8bc2fa61 ""
  "C:/Program Files/MiKTeX 2.9/tex/latex/listings/listings.sty" 1378718128 82468 19b50098b82bdd21a0af91338601a7b9 ""
  "C:/Program Files/MiKTeX 2.9/tex/latex/listings/lstlang1.sty" 1378718133 92837 82f1248e700e917b666f25c73749322f ""
  "C:/Program Files/MiKTeX 2.9/tex/latex/listings/lstmisc.sty" 1378718128 79113 23e93e39002d9a323237b9331888f966 ""
  "C:/Program Files/MiKTeX 2.9/tex/latex/ltxmisc/url.sty" 1197261360 21932 e3a9cf32ee9b853b42be14c2f25b873c ""
  "C:/Program Files/MiKTeX 2.9/tex/latex/microtype/microtype-pdftex.def" 1369330723 48788 102de9fe36ddc0fb46fd6734b1f3e8fb ""
  "C:/Program Files/MiKTeX 2.9/tex/latex/microtype/microtype.cfg" 1369330723 23086 f25ab3218b2c6f172ac44dbf381961e1 ""
  "C:/Program Files/MiKTeX 2.9/tex/latex/microtype/microtype.sty" 1369330723 68045 fe140a1fc105016163d67aadd9efe194 ""
  "C:/Program Files/MiKTeX 2.9/tex/latex/microtype/mt-ptm.cfg" 1369330723 12392 245b99684c7828f9a963af2604faf39c ""
  "C:/Program Files/MiKTeX 2.9/tex/latex/misc/etex.sty" 890902822 14669 2b79e60ddfc0f58bfac03c66739c9ed0 ""
  "C:/Program Files/MiKTeX 2.9/tex/latex/ms/everyshi.sty" 1320147591 3987 6aa7c08ff2621006e0603349e40a30a8 ""
  "C:/Program Files/MiKTeX 2.9/tex/latex/natbib/natbib.sty" 1292249081 46712 1c8843383c0bd05870c45fa0ebea6cc2 ""
  "C:/Program Files/MiKTeX 2.9/tex/latex/ntgclass/a4.sty" 1119724602 4787 297db5b00844da9a761d5b410c03f87c ""
  "C:/Program Files/MiKTeX 2.9/tex/latex/oberdiek/auxhook.sty" 1335450732 3834 707ef09f31d7d2ea47ba89974755dfe0 ""
  "C:/Program Files/MiKTeX 2.9/tex/latex/oberdiek/bkm-dvips.def" 1335450736 9355 6765b69b4439960415baa3c57ea1f59b ""
  "C:/Program Files/MiKTeX 2.9/tex/latex/oberdiek/bookmark.sty" 1335450736 18783 cb6fb99d51298bf83443b7341a64a00b ""
  "C:/Program Files/MiKTeX 2.9/tex/latex/oberdiek/kvoptions.sty" 1335450770 22417 c74ff4af6a1aa2b65d1924020edbbe11 ""
  "C:/Program Files/MiKTeX 2.9/tex/latex/oberdiek/rerunfilecheck.sty" 1335450793 9581 1158efc648bc09d5064db5703c882159 ""
  "C:/Program Files/MiKTeX 2.9/tex/latex/pgf/basiclayer/pgf.sty" 1288036821 1190 7fc0a2dca176dcabef03fed7aa3e5e7e ""
  "C:/Program Files/MiKTeX 2.9/tex/latex/pgf/basiclayer/pgfcore.sty" 1288036821 410 5bf12ea7330e5f12c445332a4fe9a263 ""
  "C:/Program Files/MiKTeX 2.9/tex/latex/pgf/compatibility/pgfcomp-version-0-65.sty" 1288036821 21115 facf03b7dbe5ea2f5f1dce1ac84b5d05 ""
  "C:/Program Files/MiKTeX 2.9/tex/latex/pgf/compatibility/pgfcomp-version-1-18.sty" 1288036821 1091 d9163d29def82ee90370c8a63667742c ""
  "C:/Program Files/MiKTeX 2.9/tex/latex/pgf/frontendlayer/tikz.sty" 1288036821 339 592cf35cba3d400082b8a9a5d0199d70 ""
  "C:/Program Files/MiKTeX 2.9/tex/latex/pgf/systemlayer/pgfsys.sty" 1288036821 362 4d082b7c595b2ffec199f5351c4303c9 ""
  "C:/Program Files/MiKTeX 2.9/tex/latex/pgf/utilities/pgffor.sty" 1288036821 323 c1a2c1d11990f32ace1f893aa7fee540 ""
  "C:/Program Files/MiKTeX 2.9/tex/latex/pgf/utilities/pgfkeys.sty" 1288036821 274 4cad6e665cc93ac2ac979039a94fa1e1 ""
  "C:/Program Files/MiKTeX 2.9/tex/latex/pgf/utilities/pgfrcs.sty" 1288036821 325 2bcd023400636339210573e2b3ee298b ""
  "C:/Program Files/MiKTeX 2.9/tex/latex/placeins/placeins.sty" 1113861600 4087 636308456f60d2b31cbf97867db5708d ""
  "C:/Program Files/MiKTeX 2.9/tex/latex/psnfss/mathpazo.sty" 1156706054 8977 7001b1ab94674ce4a6004aef2826ec90 ""
  "C:/Program Files/MiKTeX 2.9/tex/latex/psnfss/ot1phv.fd" 1137114230 1684 0ac4554419e828cf2c810306539da167 ""
  "C:/Program Files/MiKTeX 2.9/tex/latex/psnfss/ot1ptm.fd" 1137114230 961 15056f4a61917ceed3a44e4ac11fcc52 ""
  "C:/Program Files/MiKTeX 2.9/tex/latex/psnfss/times.sty" 1156706054 857 6c716f26c5eadfb81029fcd6ce2d45e6 ""
  "C:/Program Files/MiKTeX 2.9/tex/latex/setspace/setspace.sty" 1324294077 22913 a27d7908fc6f0385466454a966a316eb ""
  "C:/Program Files/MiKTeX 2.9/tex/latex/substr/substr.sty" 1256062443 5724 d3505925e87b345f11a5f17d58550dea ""
  "C:/Program Files/MiKTeX 2.9/tex/latex/supertabular/supertabular.sty" 1110663892 14766 563cabe54cdab0459534c65c66672d04 ""
  "C:/Program Files/MiKTeX 2.9/tex/latex/textcase/textcase.sty" 1128365776 2083 79a2c3efd954daff1698214872b6ca46 ""
  "C:/Program Files/MiKTeX 2.9/tex/latex/titlesec/titlesec.sty" 1323944846 37083 54a2e11f0f208916a9976d9e4837d144 ""
  "C:/Program Files/MiKTeX 2.9/tex/latex/tocloft/tocloft.sty" 1367500090 34706 345df874e59e023274392bd0cf090d66 ""
  "C:/Program Files/MiKTeX 2.9/tex/latex/todonotes/todonotes.sty" 1354616276 17014 5716e91e0bf33d1ef140551cf3a511bf ""
  "C:/Program Files/MiKTeX 2.9/tex/latex/tools/calc.sty" 1317718712 10360 18f0ccff816231e9905cd2b3a482a622 ""
  "C:/Program Files/MiKTeX 2.9/tex/latex/tools/enumerate.sty" 1317718712 3412 485bddd4058e8ddb2a8849a8d397dcbc ""
  "C:/Program Files/MiKTeX 2.9/tex/latex/tools/longtable.sty" 1317718712 12391 81a7677988a1aa6fe0c169167e78a0d7 ""
  "C:/Program Files/MiKTeX 2.9/tex/latex/ucs/ucs.sty" 1369145385 28731 5723d81d568db410592a59b85fb3eaae ""
  "C:/Program Files/MiKTeX 2.9/tex/latex/ucs/ucsencs.def" 1369145385 22806 c53c9d0d16c65bef2b157515c9d9f658 ""
  "C:/Program Files/MiKTeX 2.9/tex/latex/ucs/uni-0.def" 1368436543 7784 086a50b784a20762a031889b73f97126 ""
  "C:/Program Files/MiKTeX 2.9/tex/latex/ucs/uni-32.def" 1368436543 8033 ee5a06eead35a732222f876800c8f10f ""
  "C:/Program Files/MiKTeX 2.9/tex/latex/ucs/uni-global.def" 1368436543 1375 8a855db83af5d6753ccbbd32e6a8a901 ""
  "C:/Program Files/MiKTeX 2.9/tex/latex/ucs/utf8x.def" 1369145385 8240 21f7ac37aafb6cfeddbb196b8bfd6280 ""
  "C:/Program Files/MiKTeX 2.9/tex/latex/wrapfig/wrapfig.sty" 1044403200 26220 3701aebf80ccdef248c0c20dd062fea9 ""
  "C:/Program Files/MiKTeX 2.9/tex/latex/xcolor/xcolor.sty" 1172312492 56673 a43bab84e0ac5e6efcaf9a98bde73a94 ""
  "C:/Program Files/MiKTeX 2.9/tex/latex/xfor/xfor.sty" 1233849756 2689 44855b72da58344b1c1d9b3087bce6ca ""
  "C:/Program Files/MiKTeX 2.9/tex/latex/xkeyval/xkeyval.sty" 1350199540 4934 09bb8eb3760faa4ffb6107a36e5b3d76 ""
  "C:/Program Files/MiKTeX 2.9/tex/latex/xstring/xstring.sty" 1381653102 144 0ca8d67b000b795a4d9ec000e0fd09c7 ""
  "C:/Users/André Liu/Documents/Trabalho/5º/Tese/bitbucket/def/title.tex" 0 -1 0 ""
  "C:/Users/André Liu/Documents/Trabalho/5º/Tese/bitbucket/dissertation.aux" 0 -1 0 ""
  "C:/Users/André Liu/Documents/Trabalho/5º/Tese/bitbucket/dissertation.lof" 0 -1 0 ""
  "C:/Users/André Liu/Documents/Trabalho/5º/Tese/bitbucket/dissertation.lot" 0 -1 0 ""
  "C:/Users/André Liu/Documents/Trabalho/5º/Tese/bitbucket/dissertation.sty" 0 -1 0 ""
  "C:/Users/André Liu/Documents/Trabalho/5º/Tese/bitbucket/dissertation.tex" 0 -1 0 ""
  "C:/Users/André Liu/Documents/Trabalho/5º/Tese/bitbucket/dissertation.toc" 0 -1 0 ""
  "C:/Users/Andr‚ Liu/AppData/Local/MiKTeX/2.9/miktex/data/le/pdftex/latex.fmt" 0 -1 0 ""
  "dissertation.aux" 1391693985 1257 03be1fc63490aeff0f89057074be396b ""
  "dissertation.ind" 1391693977 0 d41d8cd98f00b204e9800998ecf8427e "makeindex dissertation.idx"
  "dissertation.tex" 1391693778 57390 cfe324b89721a95f0beb97056d905b7e ""
  (generated)
  "dissertation.lot"
  "dissertation.dvi"
  "dissertation.aux"
  "dissertation.toc"
  "dissertation.idx"
  "dissertation.lof"
  "dissertation.log"
["makeindex dissertation.idx"] 1391693977 "dissertation.idx" "dissertation.ind" "dissertation" 1391693986
  "dissertation.idx" 1391693982 0 d41d8cd98f00b204e9800998ecf8427e ""
  (generated)
  "dissertation.ind"
