\deactivateaddvspace 
\addvspace {10\p@ }
\addvspace {10\p@ }
\contentsline {figure}{\numberline {1}{\ignorespaces Bugle showstats example}}{8}{figure.caption.8}
\contentsline {figure}{\numberline {2}{\ignorespaces Bugle state tab.\relax }}{10}{figure.caption.9}
\contentsline {figure}{\numberline {3}{\ignorespaces Bugle buffer view.\relax }}{10}{figure.caption.10}
\contentsline {figure}{\numberline {4}{\ignorespaces Bugle shader error encountered.\relax }}{11}{figure.caption.11}
\contentsline {figure}{\numberline {5}{\ignorespaces Apitrace's qapitrace GUI}}{13}{figure.caption.12}
\contentsline {figure}{\numberline {6}{\ignorespaces Apitrace looking up state}}{14}{figure.caption.13}
\contentsline {figure}{\numberline {7}{\ignorespaces Apitrace inner workings diagram}}{15}{figure.caption.14}
\contentsline {figure}{\numberline {8}{\ignorespaces GLIntercept XML output.\relax }}{17}{figure.caption.15}
\contentsline {figure}{\numberline {9}{\ignorespaces GLSL Trace Statistics and Vertex Shader}}{23}{figure.caption.16}
\contentsline {figure}{\numberline {10}{\ignorespaces GLSL fragment color viewer.\relax }}{23}{figure.caption.17}
\contentsline {figure}{\numberline {11}{\ignorespaces VOGL editor after snapshot.\relax }}{25}{figure.caption.18}
\contentsline {figure}{\numberline {12}{\ignorespaces Nsight HUD while application is running.\relax }}{28}{figure.caption.19}
\contentsline {figure}{\numberline {13}{\ignorespaces Nsight HUD while application is paused.\relax }}{29}{figure.caption.20}
\contentsline {figure}{\numberline {14}{\ignorespaces Nsight HUD while application is paused with wireframe on.\relax }}{29}{figure.caption.21}
\addvspace {10\p@ }
\addvspace {10\p@ }
\contentsline {figure}{\numberline {15}{\ignorespaces Composer's Pass controller.\relax }}{51}{figure.caption.26}
\contentsline {figure}{\numberline {16}{\ignorespaces Nau's GLIntercept log viewer.\relax }}{51}{figure.caption.27}
\contentsline {figure}{\numberline {17}{\ignorespaces Nau program information.\relax }}{52}{figure.caption.28}
\contentsline {figure}{\numberline {18}{\ignorespaces Nau buffer information.\relax }}{52}{figure.caption.29}
\contentsline {figure}{\numberline {19}{\ignorespaces Nau VAO information.\relax }}{53}{figure.caption.30}
\addvspace {10\p@ }
\addvspace {10\p@ }
\contentsline {figure}{\numberline {20}{\ignorespaces Bugle showstats example}}{65}{figure.caption.33}
\addvspace {10\p@ }
\addvspace {10\p@ }
\contentsline {figure}{\numberline {21}{\ignorespaces Extension override results\relax }}{82}{figure.caption.34}
\addvspace {10\p@ }
\contentsline {figure}{\numberline {22}{\ignorespaces GLSL open application dialog}}{86}{figure.caption.35}
\contentsline {figure}{\numberline {23}{\ignorespaces GLSL Buffer View and Fragment shader}}{86}{figure.caption.36}
\contentsline {figure}{\numberline {24}{\ignorespaces GLSL Trace Statistics and Vertex Shader}}{87}{figure.caption.37}
\contentsline {figure}{\numberline {25}{\ignorespaces Fragment shader per-fragment options.\relax }}{90}{figure.caption.38}
\contentsline {figure}{\numberline {26}{\ignorespaces Fragment coordinates viewer.\relax }}{91}{figure.caption.39}
\contentsline {figure}{\numberline {27}{\ignorespaces Fragment color viewer.\relax }}{92}{figure.caption.40}
\contentsline {figure}{\numberline {28}{\ignorespaces Fragment position viewer.\relax }}{92}{figure.caption.41}
\addvspace {10\p@ }
\contentsline {figure}{\numberline {29}{\ignorespaces VOGL Reminder}}{94}{figure.caption.42}
\contentsline {figure}{\numberline {30}{\ignorespaces VOGL editor after snapshot.\relax }}{95}{figure.caption.43}
\contentsline {figure}{\numberline {31}{\ignorespaces VOGL editor generate trace.\relax }}{96}{figure.caption.44}
